{
    "compilerOptions": {
        "types": [
            "node",
            "webdriverio/sync",
            "@wdio/mocha-framework"
        ]
    },
   
    "include": [
        "test/specs/*.js",
        "**/*.json",
        "node_modules/@wdio/sync",
        "node_modules/@wdio/mocha-framework"
    ]
  }
  