{
  "error": "no such element",
  "message": "Unable to locate element: //iframe[@name=\"preview\"]",
  "stacktrace": "WebDriverError@chrome://marionette/content/error.js:181:5\nNoSuchElementError@chrome://marionette/content/error.js:393:5\nelement.find/</<@chrome://marionette/content/element.js:306:16\n"
}