{
  "id": {
    "sessionId": "c1ec6f6b-b1e5-364b-9b2e-7eda0450f545",
    "elementId": "d02ffc38-ff4d-9b4d-8958-d0f07a351bb0",
    "element-6066-11e4-a52e-4f735466cecf": "d02ffc38-ff4d-9b4d-8958-d0f07a351bb0",
    "selector": "//iframe[@name=\"preview\"]",
    "parent": {
      "sessionId": "c1ec6f6b-b1e5-364b-9b2e-7eda0450f545",
      "capabilities": {
        "acceptInsecureCerts": false,
        "browserName": "firefox",
        "browserVersion": "90.0.1",
        "moz:accessibilityChecks": false,
        "moz:buildID": "20210716144314",
        "moz:debuggerAddress": "localhost:49328",
        "moz:geckodriverVersion": "0.29.1",
        "moz:headless": false,
        "moz:processID": 7948,
        "moz:profile": "/var/folders/nn/bl_8xhbd26j9n221xh85bz3h0000gn/T/rust_mozprofileGZToCl",
        "moz:shutdownTimeout": 60000,
        "moz:useNonSpecCompliantPointerOrigin": false,
        "moz:webdriverClick": true,
        "pageLoadStrategy": "normal",
        "platformName": "mac",
        "platformVersion": "20.5.0",
        "proxy": {},
        "setWindowRect": true,
        "strictFileInteractability": false,
        "timeouts": {
          "implicit": 0,
          "pageLoad": 300000,
          "script": 30000
        },
        "unhandledPromptBehavior": "dismiss and notify"
      },
      "config": {
        "specs": [
          "./test/specs/**/*.js"
        ],
        "suites": {
          "firefox": [
            "test/specs/editRowTest.js"
          ]
        },
        "exclude": [],
        "logLevel": "info",
        "logLevels": {},
        "excludeDriverLogs": [],
        "bail": 0,
        "waitforInterval": 500,
        "waitforTimeout": 10000,
        "framework": "mocha",
        "reporters": [
          [
            "allure",
            {
              "outputDir": "allure-results",
              "disableWebdriverScreenshotsReporting": false
            }
          ]
        ],
        "services": [
          [
            "firefox-profile",
            {
              "extensions": [
                "/path/to/extensionA.xpi",
                "/path/to/extensionB"
              ],
              "xpinstall.signatures.required": false,
              "browser.startup.homepage": "https://webdriver.io",
              "legacy": true
            }
          ]
        ],
        "maxInstances": 10,
        "maxInstancesPerCapability": 100,
        "filesToWatch": [],
        "connectionRetryTimeout": 120000,
        "connectionRetryCount": 3,
        "execArgv": [],
        "runnerEnv": {},
        "runner": "local",
        "specFileRetries": 0,
        "specFileRetriesDelay": 0,
        "specFileRetriesDeferred": false,
        "reporterSyncInterval": 100,
        "reporterSyncTimeout": 5000,
        "cucumberFeaturesWithLineNumbers": [],
        "autoCompileOpts": {
          "autoCompile": true,
          "tsNodeOpts": {
            "transpileOnly": true
          },
          "babelOpts": {}
        },
        "mochaOpts": {
          "timeout": 60000,
          "ui": "bdd"
        },
        "jasmineOpts": {
          "defaultTimeoutInterval": 10000
        },
        "cucumberOpts": {
          "timeout": 10000
        },
        "onPrepare": [],
        "onWorkerStart": [],
        "before": [],
        "beforeSession": [],
        "beforeSuite": [],
        "beforeHook": [],
        "beforeTest": [],
        "beforeCommand": [],
        "afterCommand": [],
        "afterTest": [
          null
        ],
        "afterHook": [],
        "afterSuite": [],
        "afterSession": [],
        "after": [],
        "onComplete": [],
        "onReload": [],
        "beforeFeature": [],
        "beforeScenario": [],
        "beforeStep": [],
        "afterStep": [],
        "afterScenario": [],
        "afterFeature": [],
        "baseUrl": "https://developer.salesforce.com/",
        "_": [
          "run"
        ],
        "$0": "/Users/oscareduardoregaladocalzada/Desktop/codeChalange/node_modules/.bin/wdio",
        "config-path": "wdio.ff.conf.js",
        "ignoredWorkerServices": [
          "firefox-profile"
        ]
      },
      "_NOT_FIBER": true
    },
    "isReactElement": false
  }
}