{
  "error": "no such element",
  "message": "no such element: Unable to locate element: {\"method\":\"xpath\",\"selector\":\"//input[@name='example']\"}\n  (Session info: chrome=92.0.4515.107)",
  "stacktrace": "0   chromedriver                        0x00000001049e1649 chromedriver + 2741833\n1   chromedriver                        0x0000000105097fb3 chromedriver + 9781171\n2   chromedriver                        0x000000010476e308 chromedriver + 172808\n3   chromedriver                        0x00000001047a241b chromedriver + 386075\n4   chromedriver                        0x00000001047d30c4 chromedriver + 585924\n5   chromedriver                        0x00000001047bf59d chromedriver + 505245\n6   chromedriver                        0x00000001047d0e94 chromedriver + 577172\n7   chromedriver                        0x00000001047bf863 chromedriver + 505955\n8   chromedriver                        0x0000000104795ef1 chromedriver + 335601\n9   chromedriver                        0x0000000104797125 chromedriver + 340261\n10  chromedriver                        0x00000001049a875c chromedriver + 2508636\n11  chromedriver                        0x00000001049bb686 chromedriver + 2586246\n12  chromedriver                        0x000000010498db51 chromedriver + 2399057\n13  chromedriver                        0x00000001049bca5f chromedriver + 2591327\n14  chromedriver                        0x000000010499e6ec chromedriver + 2467564\n15  chromedriver                        0x00000001049d62d8 chromedriver + 2695896\n16  chromedriver                        0x00000001049d646b chromedriver + 2696299\n17  chromedriver                        0x00000001049e6558 chromedriver + 2762072\n18  libsystem_pthread.dylib             0x00007fff203128fc _pthread_start + 224\n19  libsystem_pthread.dylib             0x00007fff2030e443 thread_start + 15\n"
}